// Jest Snapshot v1, https://goo.gl/fbAQLP

exports[`LoanCalculatorWidget renders the component 1`] = `
<div>
  <h2>Loan Calculator Widget</h2>
  <div>
    <loaninputsform-stub></loaninputsform-stub>
    <loaninstallmentresult-stub calculatedinstallmentdata="[object Object]"></loaninstallmentresult-stub>
  </div>
</div>
`;
